
{
    "default_hs_url": "http://localhost:8008",
    "default_is_url": "https://vector.im",
    "brand": "Riot",
    "integrations_ui_url": "https://scalar.vector.im/",
    "integrations_rest_url": "https://scalar.vector.im/api",
    "bug_report_endpoint_url": "https://riot.im/bugreports/submit",
    "enableLabs": true,
    "roomDirectory": {
        "servers": [
            "matrix.org"
        ]
    },
    "welcomeUserId": "@signal:localhost:8008"
}
